{
  "id": 2,
  "name" : "puzzle",
  "price" : 10,
  "desc" : "Lorem ipsum dolor sit amet consectetur adipisicing elit. Porro provident minima architecto alias ullam perferendis ducimus magnam cupiditate, similique quasi incidunt ad necessitatibus ut voluptate. Consequuntur distinctio libero nihil voluptatibus laboriosam, accusantium quidem hic voluptate optio, sed fugiat atque voluptas! Nisi dolore ullam provident unde ducimus rerum, voluptatem obcaecati. Quae!",
  "img" : "puzzle",
  "category": "products"
},